{
	"info": {
		"_postman_id": "5f57da25-918a-4d13-b9d5-3c90c1ee43a7",
		"name": "API Entregable 1",
		"schema": "https://schema.getpostman.com/json/collection/v2.1.0/collection.json"
	},
	"item": [
		{
			"name": "Productos",
			"protocolProfileBehavior": {
				"disableBodyPruning": true
			},
			"request": {
				"method": "GET",
				"header": [],
				"body": {
					"mode": "raw",
					"raw": "{ \"saludoCorto\" : \"¡Chau!\", \"saludoLargo\" : \"¡Chau! ¡Nos vemos pronto!\" }",
					"options": {
						"raw": {
							"language": "json"
						}
					}
				},
				"url": {
					"raw": "{{API_ENT1}}/productos/",
					"host": [
						"{{API_ENT1}}"
					],
					"path": [
						"productos",
						""
					]
				}
			},
			"response": [
				{
					"name": "Productos",
					"originalRequest": {
						"method": "GET",
						"header": [],
						"body": {
							"mode": "raw",
							"raw": "{ \"saludoCorto\" : \"¡Chau!\", \"saludoLargo\" : \"¡Chau! ¡Nos vemos pronto!\" }",
							"options": {
								"raw": {
									"language": "json"
								}
							}
						},
						"url": {
							"raw": "{{API_ENT1}}/productos/",
							"host": [
								"{{API_ENT1}}"
							],
							"path": [
								"productos",
								""
							]
						}
					},
					"status": "OK",
					"code": 200,
					"_postman_previewlanguage": "json",
					"header": [
						{
							"key": "Content-Type",
							"value": "application/json"
						},
						{
							"key": "Transfer-Encoding",
							"value": "chunked"
						},
						{
							"key": "Date",
							"value": "Wed, 19 May 2021 12:22:31 GMT"
						},
						{
							"key": "Keep-Alive",
							"value": "timeout=60"
						},
						{
							"key": "Connection",
							"value": "keep-alive"
						}
					],
					"cookie": [],
					"body": "[\n    {\n        \"id\": 1,\n        \"marca\": \"Adidas\",\n        \"descripcion\": \"Zapatillas impresionantes\",\n        \"precio\": 189,\n        \"usuarios\": []\n    },\n    {\n        \"id\": 2,\n        \"marca\": \"Asics\",\n        \"descripcion\": \"Zapatillas pronadoras\",\n        \"precio\": 589,\n        \"usuarios\": []\n    },\n    {\n        \"id\": 3,\n        \"marca\": \"Nike\",\n        \"descripcion\": \"Zapatillas basket\",\n        \"precio\": 865,\n        \"usuarios\": []\n    },\n    {\n        \"id\": 4,\n        \"marca\": \"Jameson\",\n        \"descripcion\": \"Whiski Jameson Black\",\n        \"precio\": 200,\n        \"usuarios\": []\n    }\n]"
				}
			]
		},
		{
			"name": "Agregar Zapatillas Adidas",
			"request": {
				"method": "POST",
				"header": [],
				"body": {
					"mode": "raw",
					"raw": "{ \"marca\" : \"Adidas\", \"descripcion\" : \"Zapatillas impresionantes\", \"precio\" : 189.00 }",
					"options": {
						"raw": {
							"language": "json"
						}
					}
				},
				"url": {
					"raw": "{{API_ENT1}}/productos/",
					"host": [
						"{{API_ENT1}}"
					],
					"path": [
						"productos",
						""
					]
				}
			},
			"response": [
				{
					"name": "Agregar Zapatillas Adidas",
					"originalRequest": {
						"method": "POST",
						"header": [],
						"body": {
							"mode": "raw",
							"raw": "{ \"marca\" : \"Adidas\", \"descripcion\" : \"Zapatillas impresionantes\", \"precio\" : 189.00 }",
							"options": {
								"raw": {
									"language": "json"
								}
							}
						},
						"url": {
							"raw": "{{API_ENT1}}/productos/",
							"host": [
								"{{API_ENT1}}"
							],
							"path": [
								"productos",
								""
							]
						}
					},
					"status": "OK",
					"code": 200,
					"_postman_previewlanguage": "json",
					"header": [
						{
							"key": "Content-Type",
							"value": "application/json"
						},
						{
							"key": "Transfer-Encoding",
							"value": "chunked"
						},
						{
							"key": "Date",
							"value": "Wed, 19 May 2021 12:13:08 GMT"
						},
						{
							"key": "Keep-Alive",
							"value": "timeout=60"
						},
						{
							"key": "Connection",
							"value": "keep-alive"
						}
					],
					"cookie": [],
					"body": "{\n    \"id\": 1,\n    \"marca\": \"Adidas\",\n    \"descripcion\": \"Zapatillas impresionantes\",\n    \"precio\": 189,\n    \"usuarios\": []\n}"
				}
			]
		},
		{
			"name": "Agregar Zapatillas Asics",
			"request": {
				"method": "POST",
				"header": [],
				"body": {
					"mode": "raw",
					"raw": "{ \"marca\" : \"Asics\", \"descripcion\" : \"Zapatillas pronadoras\", \"precio\" : 589.00 }",
					"options": {
						"raw": {
							"language": "json"
						}
					}
				},
				"url": {
					"raw": "{{API_ENT1}}/productos/",
					"host": [
						"{{API_ENT1}}"
					],
					"path": [
						"productos",
						""
					]
				}
			},
			"response": [
				{
					"name": "Agregar Zapatillas Asics",
					"originalRequest": {
						"method": "POST",
						"header": [],
						"body": {
							"mode": "raw",
							"raw": "{ \"marca\" : \"Asics\", \"descripcion\" : \"Zapatillas pronadoras\", \"precio\" : 589.00 }",
							"options": {
								"raw": {
									"language": "json"
								}
							}
						},
						"url": {
							"raw": "{{API_ENT1}}/productos/",
							"host": [
								"{{API_ENT1}}"
							],
							"path": [
								"productos",
								""
							]
						}
					},
					"status": "OK",
					"code": 200,
					"_postman_previewlanguage": "json",
					"header": [
						{
							"key": "Content-Type",
							"value": "application/json"
						},
						{
							"key": "Transfer-Encoding",
							"value": "chunked"
						},
						{
							"key": "Date",
							"value": "Wed, 19 May 2021 12:13:32 GMT"
						},
						{
							"key": "Keep-Alive",
							"value": "timeout=60"
						},
						{
							"key": "Connection",
							"value": "keep-alive"
						}
					],
					"cookie": [],
					"body": "{\n    \"id\": 2,\n    \"marca\": \"Asics\",\n    \"descripcion\": \"Zapatillas pronadoras\",\n    \"precio\": 589,\n    \"usuarios\": []\n}"
				}
			]
		},
		{
			"name": "Agregar Zapatillas Nike",
			"request": {
				"method": "POST",
				"header": [],
				"body": {
					"mode": "raw",
					"raw": "{ \"marca\" : \"Nike\", \"descripcion\" : \"Zapatillas basket\", \"precio\" : 865.00 }",
					"options": {
						"raw": {
							"language": "json"
						}
					}
				},
				"url": {
					"raw": "{{API_ENT1}}/productos/",
					"host": [
						"{{API_ENT1}}"
					],
					"path": [
						"productos",
						""
					]
				}
			},
			"response": [
				{
					"name": "Agregar Zapatillas Nike",
					"originalRequest": {
						"method": "POST",
						"header": [],
						"body": {
							"mode": "raw",
							"raw": "{ \"marca\" : \"Nike\", \"descripcion\" : \"Zapatillas basket\", \"precio\" : 865.00 }",
							"options": {
								"raw": {
									"language": "json"
								}
							}
						},
						"url": {
							"raw": "{{API_ENT1}}/productos/",
							"host": [
								"{{API_ENT1}}"
							],
							"path": [
								"productos",
								""
							]
						}
					},
					"status": "OK",
					"code": 200,
					"_postman_previewlanguage": "json",
					"header": [
						{
							"key": "Content-Type",
							"value": "application/json"
						},
						{
							"key": "Transfer-Encoding",
							"value": "chunked"
						},
						{
							"key": "Date",
							"value": "Wed, 19 May 2021 12:13:57 GMT"
						},
						{
							"key": "Keep-Alive",
							"value": "timeout=60"
						},
						{
							"key": "Connection",
							"value": "keep-alive"
						}
					],
					"cookie": [],
					"body": "{\n    \"id\": 3,\n    \"marca\": \"Nike\",\n    \"descripcion\": \"Zapatillas basket\",\n    \"precio\": 865,\n    \"usuarios\": []\n}"
				}
			]
		},
		{
			"name": "Agregar Whiski Jameson",
			"request": {
				"method": "POST",
				"header": [],
				"body": {
					"mode": "raw",
					"raw": "{ \"marca\" : \"Jameson\", \"descripcion\" : \"Whiski Jameson Black\", \"precio\" : 200.00 }",
					"options": {
						"raw": {
							"language": "json"
						}
					}
				},
				"url": {
					"raw": "{{API_ENT1}}/productos/",
					"host": [
						"{{API_ENT1}}"
					],
					"path": [
						"productos",
						""
					]
				}
			},
			"response": [
				{
					"name": "Agregar Whiski Jameson",
					"originalRequest": {
						"method": "POST",
						"header": [],
						"body": {
							"mode": "raw",
							"raw": "{ \"marca\" : \"Jameson\", \"descripcion\" : \"Whiski Jameson Black\", \"precio\" : 200.00 }",
							"options": {
								"raw": {
									"language": "json"
								}
							}
						},
						"url": {
							"raw": "{{API_ENT1}}/productos/",
							"host": [
								"{{API_ENT1}}"
							],
							"path": [
								"productos",
								""
							]
						}
					},
					"status": "OK",
					"code": 200,
					"_postman_previewlanguage": "json",
					"header": [
						{
							"key": "Content-Type",
							"value": "application/json"
						},
						{
							"key": "Transfer-Encoding",
							"value": "chunked"
						},
						{
							"key": "Date",
							"value": "Thu, 13 May 2021 13:27:58 GMT"
						},
						{
							"key": "Keep-Alive",
							"value": "timeout=60"
						},
						{
							"key": "Connection",
							"value": "keep-alive"
						}
					],
					"cookie": [],
					"body": "{\n    \"id\": 2,\n    \"marca\": \"Jameson\",\n    \"descripcion\": \"Whiski Jameson Black\",\n    \"precio\": 200,\n    \"usuarios\": null\n}"
				}
			]
		},
		{
			"name": "Obtener Producto por id",
			"protocolProfileBehavior": {
				"disableBodyPruning": true
			},
			"request": {
				"method": "GET",
				"header": [],
				"body": {
					"mode": "raw",
					"raw": "",
					"options": {
						"raw": {
							"language": "json"
						}
					}
				},
				"url": {
					"raw": "{{API_ENT1}}/productos/1/",
					"host": [
						"{{API_ENT1}}"
					],
					"path": [
						"productos",
						"1",
						""
					]
				}
			},
			"response": [
				{
					"name": "Obtener Producto por id",
					"originalRequest": {
						"method": "GET",
						"header": [],
						"body": {
							"mode": "raw",
							"raw": "",
							"options": {
								"raw": {
									"language": "json"
								}
							}
						},
						"url": {
							"raw": "{{API_ENT1}}/productos/2/",
							"host": [
								"{{API_ENT1}}"
							],
							"path": [
								"productos",
								"2",
								""
							]
						}
					},
					"status": "OK",
					"code": 200,
					"_postman_previewlanguage": "json",
					"header": [
						{
							"key": "Content-Type",
							"value": "application/json"
						},
						{
							"key": "Transfer-Encoding",
							"value": "chunked"
						},
						{
							"key": "Date",
							"value": "Wed, 19 May 2021 12:24:36 GMT"
						},
						{
							"key": "Keep-Alive",
							"value": "timeout=60"
						},
						{
							"key": "Connection",
							"value": "keep-alive"
						}
					],
					"cookie": [],
					"body": "{\n    \"id\": 2,\n    \"marca\": \"Asics\",\n    \"descripcion\": \"Zapatillas pronadoras\",\n    \"precio\": 589,\n    \"usuarios\": [\n        {\n            \"id\": 2,\n            \"nombre\": \"Pepito\"\n        },\n        {\n            \"id\": 3,\n            \"nombre\": \"Jaimito\"\n        }\n    ]\n}"
				}
			]
		},
		{
			"name": "Borrar Producto por id",
			"request": {
				"method": "DELETE",
				"header": [],
				"body": {
					"mode": "raw",
					"raw": "",
					"options": {
						"raw": {
							"language": "json"
						}
					}
				},
				"url": {
					"raw": "{{API_ENT1}}/productos/1/",
					"host": [
						"{{API_ENT1}}"
					],
					"path": [
						"productos",
						"1",
						""
					]
				}
			},
			"response": []
		},
		{
			"name": "Obtener Usuarios Producto 1",
			"request": {
				"method": "GET",
				"header": [],
				"url": {
					"raw": "{{API_ENT1}}/productos/1/usuarios",
					"host": [
						"{{API_ENT1}}"
					],
					"path": [
						"productos",
						"1",
						"usuarios"
					]
				},
				"description": "a   "
			},
			"response": [
				{
					"name": "Obtener Usuarios Producto 1",
					"originalRequest": {
						"method": "GET",
						"header": [],
						"url": {
							"raw": "{{API_ENT1}}/productos/2/usuarios",
							"host": [
								"{{API_ENT1}}"
							],
							"path": [
								"productos",
								"2",
								"usuarios"
							]
						}
					},
					"status": "OK",
					"code": 200,
					"_postman_previewlanguage": "json",
					"header": [
						{
							"key": "Content-Type",
							"value": "application/json"
						},
						{
							"key": "Transfer-Encoding",
							"value": "chunked"
						},
						{
							"key": "Date",
							"value": "Wed, 19 May 2021 12:25:01 GMT"
						},
						{
							"key": "Keep-Alive",
							"value": "timeout=60"
						},
						{
							"key": "Connection",
							"value": "keep-alive"
						}
					],
					"cookie": [],
					"body": "[\n    {\n        \"id\": 2,\n        \"nombre\": \"Pepito\"\n    },\n    {\n        \"id\": 3,\n        \"nombre\": \"Jaimito\"\n    }\n]"
				}
			]
		},
		{
			"name": "Agregar Usuario Jaimito al Producto 2",
			"request": {
				"method": "POST",
				"header": [],
				"body": {
					"mode": "raw",
					"raw": "{ \"nombre\" : \"Jaimito\"}",
					"options": {
						"raw": {
							"language": "json"
						}
					}
				},
				"url": {
					"raw": "{{API_ENT1}}/productos/2/usuarios",
					"host": [
						"{{API_ENT1}}"
					],
					"path": [
						"productos",
						"2",
						"usuarios"
					]
				}
			},
			"response": [
				{
					"name": "Agregar Usuario Jaimito al Producto 2",
					"originalRequest": {
						"method": "POST",
						"header": [],
						"body": {
							"mode": "raw",
							"raw": "{ \"nombre\" : \"Jaimito\"}",
							"options": {
								"raw": {
									"language": "json"
								}
							}
						},
						"url": {
							"raw": "{{API_ENT1}}/productos/2/usuarios",
							"host": [
								"{{API_ENT1}}"
							],
							"path": [
								"productos",
								"2",
								"usuarios"
							]
						}
					},
					"status": "OK",
					"code": 200,
					"_postman_previewlanguage": "json",
					"header": [
						{
							"key": "Content-Type",
							"value": "application/json"
						},
						{
							"key": "Transfer-Encoding",
							"value": "chunked"
						},
						{
							"key": "Date",
							"value": "Wed, 19 May 2021 12:23:39 GMT"
						},
						{
							"key": "Keep-Alive",
							"value": "timeout=60"
						},
						{
							"key": "Connection",
							"value": "keep-alive"
						}
					],
					"cookie": [],
					"body": "{\n    \"id\": 3,\n    \"nombre\": \"Jaimito\"\n}"
				}
			]
		},
		{
			"name": "Reemplazar producto",
			"request": {
				"method": "PUT",
				"header": [],
				"body": {
					"mode": "raw",
					"raw": "{ \"marca\" : \"Fila\", \"descripcion\" : \"Tenis deportivas\", \"precio\" : 234.50}",
					"options": {
						"raw": {
							"language": "json"
						}
					}
				},
				"url": {
					"raw": "{{API_ENT1}}/productos/3",
					"host": [
						"{{API_ENT1}}"
					],
					"path": [
						"productos",
						"3"
					]
				}
			},
			"response": [
				{
					"name": "Reemplazar producto",
					"originalRequest": {
						"method": "PUT",
						"header": [],
						"body": {
							"mode": "raw",
							"raw": "{ \"marca\" : \"Fila\", \"descripcion\" : \"Tenis deportivas\", \"precio\" : 234.50}",
							"options": {
								"raw": {
									"language": "json"
								}
							}
						},
						"url": {
							"raw": "{{API_ENT1}}/productos/3",
							"host": [
								"{{API_ENT1}}"
							],
							"path": [
								"productos",
								"3"
							]
						}
					},
					"status": "OK",
					"code": 200,
					"_postman_previewlanguage": "json",
					"header": [
						{
							"key": "Content-Type",
							"value": "application/json"
						},
						{
							"key": "Transfer-Encoding",
							"value": "chunked"
						},
						{
							"key": "Date",
							"value": "Wed, 19 May 2021 12:29:21 GMT"
						},
						{
							"key": "Keep-Alive",
							"value": "timeout=60"
						},
						{
							"key": "Connection",
							"value": "keep-alive"
						}
					],
					"cookie": [],
					"body": "true"
				}
			]
		},
		{
			"name": "Reemplazar usuarios de un producto",
			"request": {
				"method": "PUT",
				"header": [],
				"body": {
					"mode": "raw",
					"raw": "{ \"nombre\" : \"NewTonito\"}",
					"options": {
						"raw": {
							"language": "json"
						}
					}
				},
				"url": {
					"raw": "{{API_ENT1}}/productos/1/usuarios/4",
					"host": [
						"{{API_ENT1}}"
					],
					"path": [
						"productos",
						"1",
						"usuarios",
						"4"
					]
				}
			},
			"response": [
				{
					"name": "Reemplazar usuarios de un producto",
					"originalRequest": {
						"method": "PUT",
						"header": [],
						"body": {
							"mode": "raw",
							"raw": "{ \"nombre\" : \"NewTonito\"}",
							"options": {
								"raw": {
									"language": "json"
								}
							}
						},
						"url": {
							"raw": "{{API_ENT1}}/productos/1/usuarios/4",
							"host": [
								"{{API_ENT1}}"
							],
							"path": [
								"productos",
								"1",
								"usuarios",
								"4"
							]
						}
					},
					"status": "OK",
					"code": 200,
					"_postman_previewlanguage": "json",
					"header": [
						{
							"key": "Content-Type",
							"value": "application/json"
						},
						{
							"key": "Transfer-Encoding",
							"value": "chunked"
						},
						{
							"key": "Date",
							"value": "Wed, 19 May 2021 12:39:03 GMT"
						},
						{
							"key": "Keep-Alive",
							"value": "timeout=60"
						},
						{
							"key": "Connection",
							"value": "keep-alive"
						}
					],
					"cookie": [],
					"body": "true"
				}
			]
		},
		{
			"name": "Actualizar producto",
			"request": {
				"method": "PATCH",
				"header": [],
				"body": {
					"mode": "raw",
					"raw": "{ \"marca\" : \"Filantropo\"}",
					"options": {
						"raw": {
							"language": "json"
						}
					}
				},
				"url": {
					"raw": "{{API_ENT1}}/productos/3",
					"host": [
						"{{API_ENT1}}"
					],
					"path": [
						"productos",
						"3"
					]
				}
			},
			"response": [
				{
					"name": "Reemplazar producto",
					"originalRequest": {
						"method": "PUT",
						"header": [],
						"body": {
							"mode": "raw",
							"raw": "{ \"marca\" : \"Fila\", \"descripcion\" : \"Tenis deportivas\", \"precio\" : 234.50}",
							"options": {
								"raw": {
									"language": "json"
								}
							}
						},
						"url": {
							"raw": "{{API_ENT1}}/productos/3",
							"host": [
								"{{API_ENT1}}"
							],
							"path": [
								"productos",
								"3"
							]
						}
					},
					"status": "OK",
					"code": 200,
					"_postman_previewlanguage": "json",
					"header": [
						{
							"key": "Content-Type",
							"value": "application/json"
						},
						{
							"key": "Transfer-Encoding",
							"value": "chunked"
						},
						{
							"key": "Date",
							"value": "Wed, 19 May 2021 12:29:21 GMT"
						},
						{
							"key": "Keep-Alive",
							"value": "timeout=60"
						},
						{
							"key": "Connection",
							"value": "keep-alive"
						}
					],
					"cookie": [],
					"body": "true"
				},
				{
					"name": "Actualizar producto",
					"originalRequest": {
						"method": "PATCH",
						"header": [],
						"body": {
							"mode": "raw",
							"raw": "{ \"marca\" : \"Filantropo\"}",
							"options": {
								"raw": {
									"language": "json"
								}
							}
						},
						"url": {
							"raw": "{{API_ENT1}}/productos/3",
							"host": [
								"{{API_ENT1}}"
							],
							"path": [
								"productos",
								"3"
							]
						}
					},
					"status": "OK",
					"code": 200,
					"_postman_previewlanguage": "json",
					"header": [
						{
							"key": "Content-Type",
							"value": "application/json"
						},
						{
							"key": "Transfer-Encoding",
							"value": "chunked"
						},
						{
							"key": "Date",
							"value": "Wed, 19 May 2021 12:30:49 GMT"
						},
						{
							"key": "Keep-Alive",
							"value": "timeout=60"
						},
						{
							"key": "Connection",
							"value": "keep-alive"
						}
					],
					"cookie": [],
					"body": "true"
				}
			]
		},
		{
			"name": "Agregar Usuario Jaimito al Producto 1",
			"request": {
				"method": "POST",
				"header": [],
				"body": {
					"mode": "raw",
					"raw": "{ \"nombre\" : \"Jaimito\"}",
					"options": {
						"raw": {
							"language": "json"
						}
					}
				},
				"url": {
					"raw": "{{API_ENT1}}/productos/1/usuarios",
					"host": [
						"{{API_ENT1}}"
					],
					"path": [
						"productos",
						"1",
						"usuarios"
					]
				}
			},
			"response": [
				{
					"name": "Agregar Usuario Jaimito al Producto 1",
					"originalRequest": {
						"method": "POST",
						"header": [],
						"body": {
							"mode": "raw",
							"raw": "{ \"nombre\" : \"Jaimito\"}",
							"options": {
								"raw": {
									"language": "json"
								}
							}
						},
						"url": {
							"raw": "{{API_ENT1}}/productos/1/usuarios",
							"host": [
								"{{API_ENT1}}"
							],
							"path": [
								"productos",
								"1",
								"usuarios"
							]
						}
					},
					"status": "OK",
					"code": 200,
					"_postman_previewlanguage": "json",
					"header": [
						{
							"key": "Content-Type",
							"value": "application/json"
						},
						{
							"key": "Transfer-Encoding",
							"value": "chunked"
						},
						{
							"key": "Date",
							"value": "Wed, 19 May 2021 12:23:06 GMT"
						},
						{
							"key": "Keep-Alive",
							"value": "timeout=60"
						},
						{
							"key": "Connection",
							"value": "keep-alive"
						}
					],
					"cookie": [],
					"body": "{\n    \"id\": 1,\n    \"nombre\": \"Jaimito\"\n}"
				}
			]
		},
		{
			"name": "Agregar Usuario Pepito al Producto 1",
			"request": {
				"method": "POST",
				"header": [],
				"body": {
					"mode": "raw",
					"raw": "{ \"nombre\" : \"Pepito\"}",
					"options": {
						"raw": {
							"language": "json"
						}
					}
				},
				"url": {
					"raw": "{{API_ENT1}}/productos/1/usuarios",
					"host": [
						"{{API_ENT1}}"
					],
					"path": [
						"productos",
						"1",
						"usuarios"
					]
				}
			},
			"response": [
				{
					"name": "Agregar Usuario Pepito al Producto 1",
					"originalRequest": {
						"method": "POST",
						"header": [],
						"body": {
							"mode": "raw",
							"raw": "{ \"nombre\" : \"Pepito\"}",
							"options": {
								"raw": {
									"language": "json"
								}
							}
						},
						"url": {
							"raw": "{{API_ENT1}}/productos/1/usuarios",
							"host": [
								"{{API_ENT1}}"
							],
							"path": [
								"productos",
								"1",
								"usuarios"
							]
						}
					},
					"status": "Not Found",
					"code": 404,
					"_postman_previewlanguage": "plain",
					"header": [
						{
							"key": "Content-Length",
							"value": "0"
						},
						{
							"key": "Date",
							"value": "Wed, 19 May 2021 12:18:32 GMT"
						},
						{
							"key": "Keep-Alive",
							"value": "timeout=60"
						},
						{
							"key": "Connection",
							"value": "keep-alive"
						}
					],
					"cookie": [],
					"body": null
				}
			]
		},
		{
			"name": "Agregar Usuario Pepito al Producto 2",
			"request": {
				"method": "POST",
				"header": [],
				"body": {
					"mode": "raw",
					"raw": "{ \"nombre\" : \"Pepito\"}",
					"options": {
						"raw": {
							"language": "json"
						}
					}
				},
				"url": {
					"raw": "{{API_ENT1}}/productos/2/usuarios",
					"host": [
						"{{API_ENT1}}"
					],
					"path": [
						"productos",
						"2",
						"usuarios"
					]
				}
			},
			"response": [
				{
					"name": "Agregar Usuario Pepito al Producto 2",
					"originalRequest": {
						"method": "POST",
						"header": [],
						"body": {
							"mode": "raw",
							"raw": "{ \"nombre\" : \"Pepito\"}",
							"options": {
								"raw": {
									"language": "json"
								}
							}
						},
						"url": {
							"raw": "{{API_ENT1}}/productos/2/usuarios",
							"host": [
								"{{API_ENT1}}"
							],
							"path": [
								"productos",
								"2",
								"usuarios"
							]
						}
					},
					"status": "OK",
					"code": 200,
					"_postman_previewlanguage": "json",
					"header": [
						{
							"key": "Content-Type",
							"value": "application/json"
						},
						{
							"key": "Transfer-Encoding",
							"value": "chunked"
						},
						{
							"key": "Date",
							"value": "Wed, 19 May 2021 12:23:29 GMT"
						},
						{
							"key": "Keep-Alive",
							"value": "timeout=60"
						},
						{
							"key": "Connection",
							"value": "keep-alive"
						}
					],
					"cookie": [],
					"body": "{\n    \"id\": 2,\n    \"nombre\": \"Pepito\"\n}"
				}
			]
		},
		{
			"name": "Borrar Usuario Producto 1",
			"request": {
				"method": "DELETE",
				"header": [],
				"body": {
					"mode": "raw",
					"raw": "{ \"nombre\" : \"Jaimito\"}",
					"options": {
						"raw": {
							"language": "json"
						}
					}
				},
				"url": {
					"raw": "{{API_ENT1}}/productos/1/usuarios/1",
					"host": [
						"{{API_ENT1}}"
					],
					"path": [
						"productos",
						"1",
						"usuarios",
						"1"
					]
				}
			},
			"response": [
				{
					"name": "Borrar Usuario Producto 1",
					"originalRequest": {
						"method": "DELETE",
						"header": [],
						"body": {
							"mode": "raw",
							"raw": "{ \"nombre\" : \"Jaimito\"}",
							"options": {
								"raw": {
									"language": "json"
								}
							}
						},
						"url": {
							"raw": "{{API_ENT1}}/productos/1/usuarios/1",
							"host": [
								"{{API_ENT1}}"
							],
							"path": [
								"productos",
								"1",
								"usuarios",
								"1"
							]
						}
					},
					"status": "No Content",
					"code": 204,
					"_postman_previewlanguage": "plain",
					"header": [
						{
							"key": "Date",
							"value": "Wed, 19 May 2021 12:25:17 GMT"
						},
						{
							"key": "Keep-Alive",
							"value": "timeout=60"
						},
						{
							"key": "Connection",
							"value": "keep-alive"
						}
					],
					"cookie": [],
					"body": null
				}
			]
		}
	]
}